simulation/qsim/CPU.msim.vcd
$comment
	File created using the following command:
		vcd file CPU.msim.vcd -direction
$end
$date
	Mon Sep 26 20:57:24 2016
$end
$version
	ModelSim Version 10.1d
$end
$timescale
	1ps
$end
$scope module test_vlg_vec_tst $end
$var reg 1 ! CLK $end
$var reg 8 " DI [7:0] $end
$var reg 2 # N1 [1:0] $end
$var reg 2 $ N2 [1:0] $end
$var reg 2 % ND [1:0] $end
$var reg 1 & REG_WE $end
$var reg 1 ' RESET $end
$var wire 1 ( Q1 [7] $end
$var wire 1 ) Q1 [6] $end
$var wire 1 * Q1 [5] $end
$var wire 1 + Q1 [4] $end
$var wire 1 , Q1 [3] $end
$var wire 1 - Q1 [2] $end
$var wire 1 . Q1 [1] $end
$var wire 1 / Q1 [0] $end
$var wire 1 0 Q2 [7] $end
$var wire 1 1 Q2 [6] $end
$var wire 1 2 Q2 [5] $end
$var wire 1 3 Q2 [4] $end
$var wire 1 4 Q2 [3] $end
$var wire 1 5 Q2 [2] $end
$var wire 1 6 Q2 [1] $end
$var wire 1 7 Q2 [0] $end
$var wire 1 8 sampler $end
$scope module i1 $end
$var wire 1 9 gnd $end
$var wire 1 : vcc $end
$var wire 1 ; unknown $end
$var tri1 1 < devclrn $end
$var tri1 1 = devpor $end
$var tri1 1 > devoe $end
$var wire 1 ? CLK~combout $end
$var wire 1 @ RESET~combout $end
$var wire 1 A REG_WE~combout $end
$var wire 1 B inst14|inst1|lpm_mux_component|auto_generated|result_node[7]~0_combout $end
$var wire 1 C inst14|inst1|lpm_mux_component|auto_generated|result_node[7]~1_combout $end
$var wire 1 D inst14|inst1|lpm_mux_component|auto_generated|result_node[6]~2_combout $end
$var wire 1 E inst14|inst1|lpm_mux_component|auto_generated|result_node[6]~3_combout $end
$var wire 1 F inst14|inst1|lpm_mux_component|auto_generated|result_node[5]~4_combout $end
$var wire 1 G inst14|inst1|lpm_mux_component|auto_generated|result_node[5]~5_combout $end
$var wire 1 H inst14|inst1|lpm_mux_component|auto_generated|result_node[4]~6_combout $end
$var wire 1 I inst14|inst1|lpm_mux_component|auto_generated|result_node[4]~7_combout $end
$var wire 1 J inst14|inst1|lpm_mux_component|auto_generated|result_node[3]~8_combout $end
$var wire 1 K inst14|inst1|lpm_mux_component|auto_generated|result_node[3]~9_combout $end
$var wire 1 L inst14|inst1|lpm_mux_component|auto_generated|result_node[2]~10_combout $end
$var wire 1 M inst14|inst1|lpm_mux_component|auto_generated|result_node[2]~11_combout $end
$var wire 1 N inst14|inst1|lpm_mux_component|auto_generated|result_node[1]~12_combout $end
$var wire 1 O inst14|inst1|lpm_mux_component|auto_generated|result_node[1]~13_combout $end
$var wire 1 P inst14|inst1|lpm_mux_component|auto_generated|result_node[0]~14_combout $end
$var wire 1 Q inst14|inst1|lpm_mux_component|auto_generated|result_node[0]~15_combout $end
$var wire 1 R inst14|inst2|lpm_mux_component|auto_generated|result_node[7]~0_combout $end
$var wire 1 S inst14|inst2|lpm_mux_component|auto_generated|result_node[7]~1_combout $end
$var wire 1 T inst14|inst2|lpm_mux_component|auto_generated|result_node[6]~2_combout $end
$var wire 1 U inst14|inst2|lpm_mux_component|auto_generated|result_node[6]~3_combout $end
$var wire 1 V inst14|inst2|lpm_mux_component|auto_generated|result_node[5]~4_combout $end
$var wire 1 W inst14|inst2|lpm_mux_component|auto_generated|result_node[5]~5_combout $end
$var wire 1 X inst14|inst2|lpm_mux_component|auto_generated|result_node[4]~6_combout $end
$var wire 1 Y inst14|inst2|lpm_mux_component|auto_generated|result_node[4]~7_combout $end
$var wire 1 Z inst14|inst2|lpm_mux_component|auto_generated|result_node[3]~8_combout $end
$var wire 1 [ inst14|inst2|lpm_mux_component|auto_generated|result_node[3]~9_combout $end
$var wire 1 \ inst14|inst2|lpm_mux_component|auto_generated|result_node[2]~10_combout $end
$var wire 1 ] inst14|inst2|lpm_mux_component|auto_generated|result_node[2]~11_combout $end
$var wire 1 ^ inst14|inst2|lpm_mux_component|auto_generated|result_node[1]~12_combout $end
$var wire 1 _ inst14|inst2|lpm_mux_component|auto_generated|result_node[1]~13_combout $end
$var wire 1 ` inst14|inst2|lpm_mux_component|auto_generated|result_node[0]~14_combout $end
$var wire 1 a inst14|inst2|lpm_mux_component|auto_generated|result_node[0]~15_combout $end
$var wire 1 b inst14|inst7|lpm_ff_component|dffs [7] $end
$var wire 1 c inst14|inst7|lpm_ff_component|dffs [6] $end
$var wire 1 d inst14|inst7|lpm_ff_component|dffs [5] $end
$var wire 1 e inst14|inst7|lpm_ff_component|dffs [4] $end
$var wire 1 f inst14|inst7|lpm_ff_component|dffs [3] $end
$var wire 1 g inst14|inst7|lpm_ff_component|dffs [2] $end
$var wire 1 h inst14|inst7|lpm_ff_component|dffs [1] $end
$var wire 1 i inst14|inst7|lpm_ff_component|dffs [0] $end
$var wire 1 j inst14|inst8|lpm_ff_component|dffs [7] $end
$var wire 1 k inst14|inst8|lpm_ff_component|dffs [6] $end
$var wire 1 l inst14|inst8|lpm_ff_component|dffs [5] $end
$var wire 1 m inst14|inst8|lpm_ff_component|dffs [4] $end
$var wire 1 n inst14|inst8|lpm_ff_component|dffs [3] $end
$var wire 1 o inst14|inst8|lpm_ff_component|dffs [2] $end
$var wire 1 p inst14|inst8|lpm_ff_component|dffs [1] $end
$var wire 1 q inst14|inst8|lpm_ff_component|dffs [0] $end
$var wire 1 r inst14|inst9|lpm_ff_component|dffs [7] $end
$var wire 1 s inst14|inst9|lpm_ff_component|dffs [6] $end
$var wire 1 t inst14|inst9|lpm_ff_component|dffs [5] $end
$var wire 1 u inst14|inst9|lpm_ff_component|dffs [4] $end
$var wire 1 v inst14|inst9|lpm_ff_component|dffs [3] $end
$var wire 1 w inst14|inst9|lpm_ff_component|dffs [2] $end
$var wire 1 x inst14|inst9|lpm_ff_component|dffs [1] $end
$var wire 1 y inst14|inst9|lpm_ff_component|dffs [0] $end
$var wire 1 z inst14|inst6|lpm_ff_component|dffs [7] $end
$var wire 1 { inst14|inst6|lpm_ff_component|dffs [6] $end
$var wire 1 | inst14|inst6|lpm_ff_component|dffs [5] $end
$var wire 1 } inst14|inst6|lpm_ff_component|dffs [4] $end
$var wire 1 ~ inst14|inst6|lpm_ff_component|dffs [3] $end
$var wire 1 !! inst14|inst6|lpm_ff_component|dffs [2] $end
$var wire 1 "! inst14|inst6|lpm_ff_component|dffs [1] $end
$var wire 1 #! inst14|inst6|lpm_ff_component|dffs [0] $end
$var wire 1 $! inst14|inst|lpm_decode_component|auto_generated|w_anode30w [2] $end
$var wire 1 %! inst14|inst|lpm_decode_component|auto_generated|w_anode30w [1] $end
$var wire 1 &! inst14|inst|lpm_decode_component|auto_generated|w_anode30w [0] $end
$var wire 1 '! N2~combout [1] $end
$var wire 1 (! N2~combout [0] $end
$var wire 1 )! inst14|inst|lpm_decode_component|auto_generated|w_anode1w [2] $end
$var wire 1 *! inst14|inst|lpm_decode_component|auto_generated|w_anode1w [1] $end
$var wire 1 +! inst14|inst|lpm_decode_component|auto_generated|w_anode1w [0] $end
$var wire 1 ,! DI~combout [7] $end
$var wire 1 -! DI~combout [6] $end
$var wire 1 .! DI~combout [5] $end
$var wire 1 /! DI~combout [4] $end
$var wire 1 0! DI~combout [3] $end
$var wire 1 1! DI~combout [2] $end
$var wire 1 2! DI~combout [1] $end
$var wire 1 3! DI~combout [0] $end
$var wire 1 4! ND~combout [1] $end
$var wire 1 5! ND~combout [0] $end
$var wire 1 6! N1~combout [1] $end
$var wire 1 7! N1~combout [0] $end
$var wire 1 8! inst14|inst|lpm_decode_component|auto_generated|w_anode14w [2] $end
$var wire 1 9! inst14|inst|lpm_decode_component|auto_generated|w_anode14w [1] $end
$var wire 1 :! inst14|inst|lpm_decode_component|auto_generated|w_anode14w [0] $end
$var wire 1 ;! inst14|inst|lpm_decode_component|auto_generated|w_anode22w [2] $end
$var wire 1 <! inst14|inst|lpm_decode_component|auto_generated|w_anode22w [1] $end
$var wire 1 =! inst14|inst|lpm_decode_component|auto_generated|w_anode22w [0] $end
$upscope $end
$upscope $end
$enddefinitions $end
#0
$dumpvars
0!
b1 "
b0 #
b0 $
b0 %
1&
1'
0/
0.
0-
0,
0+
0*
0)
0(
07
06
05
04
03
02
01
00
x8
09
1:
x;
1<
1=
1>
0?
1@
1A
0B
0C
0D
0E
0F
0G
0H
0I
0J
0K
0L
0M
0N
0O
0P
0Q
0R
0S
0T
0U
0V
0W
0X
0Y
0Z
0[
0\
0]
0^
0_
0`
0a
0i
0h
0g
0f
0e
0d
0c
0b
0q
0p
0o
0n
0m
0l
0k
0j
0y
0x
0w
0v
0u
0t
0s
0r
0#!
0"!
0!!
0~
0}
0|
0{
0z
z&!
z%!
0$!
0(!
0'!
z+!
z*!
1)!
13!
02!
01!
00!
0/!
0.!
0-!
0,!
05!
04!
07!
06!
z:!
z9!
08!
z=!
z<!
0;!
$end
#40000
1!
0'
1?
0@
08
1#!
1`
1P
1a
1Q
17
1/
#80000
b11 "
b1 %
0!
15!
12!
0?
18
0)!
18!
#120000
1!
1?
08
1i
1h
#160000
b111 "
b11 %
b101 "
b10 %
0!
05!
14!
02!
11!
0?
18
1;!
08!
#200000
1!
1?
08
1q
1o
#240000
b111 "
b11 %
0!
15!
12!
0?
18
1$!
0;!
#280000
1!
1?
08
1y
1x
1w
#320000
b110 "
b10 $
0&
b10 "
b1 %
b0 "
b0 %
0!
0A
05!
04!
1'!
03!
02!
01!
0?
18
0$!
0`
1]
15
#360000
1!
1?
08
#400000
b1 #
b11 $
0!
1(!
17!
0?
18
1`
1_
1^
1\
1Z
1X
1V
1T
1R
1O
16
1.
#440000
1!
1?
08
#480000
1'
b1 $
b0 #
b0 $
0!
1@
07!
0(!
0'!
0?
18
0O
0^
0\
1[
0Z
0X
1W
0V
0T
1S
0R
1Y
1U
0_
0]
0[
0Y
0W
0U
0S
0.
14
12
10
13
11
06
05
04
03
02
01
00
0y
0#!
0i
0q
0x
0h
0w
0o
0`
0P
0a
0Q
07
0/
#520000
1!
1?
08
#540000
0'
b10 $
0@
1'!
18
#560000
0!
0?
08
#600000
1!
1?
18
#620000
b1 #
b11 $
1(!
17!
08
1`
1^
1\
1Z
1X
1V
1T
1R
#640000
0!
0?
18
#680000
1!
1?
08
#700000
b1 $
b0 #
b0 $
07!
0(!
0'!
18
0`
1_
0^
0\
1[
0Z
0X
1W
0V
0T
1S
0R
1a
1]
1Y
1U
0a
0_
0]
0[
0Y
0W
0U
0S
16
14
12
10
17
15
13
11
07
06
05
04
03
02
01
00
#720000
0!
0?
08
#760000
1!
1?
18
#800000
0!
0?
08
#840000
1!
1?
18
#880000
0!
0?
08
#920000
1!
1?
18
#960000
0!
0?
08
