simulation/qsim/CPU.msim.vcd
$comment
	File created using the following command:
		vcd file CPU.msim.vcd -direction
$end
$date
	Wed Oct 05 18:37:38 2016
$end
$version
	ModelSim Version 10.1d
$end
$timescale
	1ps
$end
$scope module NixieScan_vlg_vec_tst $end
$var reg 1 ! clk $end
$var reg 4 " num_C0 [3:0] $end
$var reg 4 # num_C1 [3:0] $end
$var reg 4 $ num_C2 [3:0] $end
$var reg 4 % num_C3 [3:0] $end
$var wire 1 & out [3] $end
$var wire 1 ' out [2] $end
$var wire 1 ( out [1] $end
$var wire 1 ) out [0] $end
$var wire 1 * seg_sel [3] $end
$var wire 1 + seg_sel [2] $end
$var wire 1 , seg_sel [1] $end
$var wire 1 - seg_sel [0] $end
$var wire 1 . sampler $end
$scope module i1 $end
$var wire 1 / gnd $end
$var wire 1 0 vcc $end
$var wire 1 1 unknown $end
$var tri1 1 2 devclrn $end
$var tri1 1 3 devpor $end
$var tri1 1 4 devoe $end
$var wire 1 5 state.00~regout $end
$var wire 1 6 state.00~0_combout $end
$var wire 1 7 clk~combout $end
$var wire 1 8 state.S1~0_combout $end
$var wire 1 9 state.S1~regout $end
$var wire 1 : state.S2~regout $end
$var wire 1 ; out[0]~0_combout $end
$var wire 1 < state.S3~regout $end
$var wire 1 = out[0]~1_combout $end
$var wire 1 > Selector3~0_combout $end
$var wire 1 ? Selector3~1_combout $end
$var wire 1 @ out[0]~reg0_regout $end
$var wire 1 A Selector2~0_combout $end
$var wire 1 B Selector2~1_combout $end
$var wire 1 C out[1]~reg0_regout $end
$var wire 1 D Selector1~0_combout $end
$var wire 1 E Selector1~1_combout $end
$var wire 1 F out[2]~reg0_regout $end
$var wire 1 G Selector0~0_combout $end
$var wire 1 H Selector0~1_combout $end
$var wire 1 I out[3]~reg0_regout $end
$var wire 1 J seg_sel[0]~0_combout $end
$var wire 1 K seg_sel[0]~reg0_regout $end
$var wire 1 L seg_sel[1]~reg0_regout $end
$var wire 1 M seg_sel[2]~reg0_regout $end
$var wire 1 N seg_sel[3]~reg0_regout $end
$var wire 1 O num_C3~combout [3] $end
$var wire 1 P num_C3~combout [2] $end
$var wire 1 Q num_C3~combout [1] $end
$var wire 1 R num_C3~combout [0] $end
$var wire 1 S num_C2~combout [3] $end
$var wire 1 T num_C2~combout [2] $end
$var wire 1 U num_C2~combout [1] $end
$var wire 1 V num_C2~combout [0] $end
$var wire 1 W num_C0~combout [3] $end
$var wire 1 X num_C0~combout [2] $end
$var wire 1 Y num_C0~combout [1] $end
$var wire 1 Z num_C0~combout [0] $end
$var wire 1 [ num_C1~combout [3] $end
$var wire 1 \ num_C1~combout [2] $end
$var wire 1 ] num_C1~combout [1] $end
$var wire 1 ^ num_C1~combout [0] $end
$upscope $end
$upscope $end
$enddefinitions $end
#0
$dumpvars
0!
b1 "
b10 #
b11 $
b100 %
0X
0W
0^
1]
0\
0[
0)
0(
0'
0&
0-
0,
0+
0*
x.
0/
10
x1
12
13
14
05
16
07
18
09
0:
0;
0<
0=
1>
1?
0@
1A
1B
0C
0D
0E
0F
0G
0H
0I
1J
0K
0L
0M
0N
0R
0Q
1P
0O
1V
1U
0T
0S
1Z
0Y
$end
#10000
1!
17
0.
1K
1C
1@
19
15
1;
0J
08
1-
1(
1)
0?
0>
#20000
0!
07
1.
#30000
1!
17
0.
1L
0K
0@
1:
09
1=
0;
1,
0-
0)
0B
0A
1>
1?
#40000
0!
07
1.
#50000
1!
17
0.
1M
0L
0C
1@
1<
0:
1;
06
1+
0,
0(
1)
1G
1D
1A
0?
1E
#60000
0!
07
1.
#70000
1!
17
0.
1N
0M
1F
0@
0<
05
0=
0;
16
1J
18
1*
0+
1'
0)
1H
0G
0D
1B
1?
0H
0E
#80000
0!
07
1.
#90000
1!
17
0.
0N
1K
0F
1C
1@
19
15
1;
0J
08
0*
1-
0'
1(
1)
0?
0>
#100000
0!
07
1.
#110000
1!
17
0.
1L
0K
0@
1:
09
1=
0;
1,
0-
0)
0B
0A
1>
1?
#120000
0!
07
1.
#130000
1!
17
0.
1M
0L
0C
1@
1<
0:
1;
06
1+
0,
0(
1)
1G
1D
1A
0?
1E
#140000
0!
07
1.
#150000
1!
17
0.
1N
0M
1F
0@
0<
05
0=
0;
16
1J
18
1*
0+
1'
0)
1H
0G
0D
1B
1?
0H
0E
#160000
0!
07
1.
#170000
1!
17
0.
0N
1K
0F
1C
1@
19
15
1;
0J
08
0*
1-
0'
1(
1)
0?
0>
#180000
0!
07
1.
#190000
1!
17
0.
1L
0K
0@
1:
09
1=
0;
1,
0-
0)
0B
0A
1>
1?
#200000
0!
07
1.
#210000
1!
17
0.
1M
0L
0C
1@
1<
0:
1;
06
1+
0,
0(
1)
1G
1D
1A
0?
1E
#220000
0!
07
1.
#230000
1!
17
0.
1N
0M
1F
0@
0<
05
0=
0;
16
1J
18
1*
0+
1'
0)
1H
0G
0D
1B
1?
0H
0E
#240000
0!
07
1.
#250000
1!
17
0.
0N
1K
0F
1C
1@
19
15
1;
0J
08
0*
1-
0'
1(
1)
0?
0>
#260000
0!
07
1.
#270000
1!
17
0.
1L
0K
0@
1:
09
1=
0;
1,
0-
0)
0B
0A
1>
1?
#280000
0!
07
1.
#290000
1!
17
0.
1M
0L
0C
1@
1<
0:
1;
06
1+
0,
0(
1)
1G
1D
1A
0?
1E
#300000
0!
07
1.
#310000
1!
17
0.
1N
0M
1F
0@
0<
05
0=
0;
16
1J
18
1*
0+
1'
0)
1H
0G
0D
1B
1?
0H
0E
#320000
0!
07
1.
#330000
1!
17
0.
0N
1K
0F
1C
1@
19
15
1;
0J
08
0*
1-
0'
1(
1)
0?
0>
#340000
0!
07
1.
#350000
1!
17
0.
1L
0K
0@
1:
09
1=
0;
1,
0-
0)
0B
0A
1>
1?
#360000
0!
07
1.
#370000
1!
17
0.
1M
0L
0C
1@
1<
0:
1;
06
1+
0,
0(
1)
1G
1D
1A
0?
1E
#380000
0!
07
1.
#390000
1!
17
0.
1N
0M
1F
0@
0<
05
0=
0;
16
1J
18
1*
0+
1'
0)
1H
0G
0D
1B
1?
0H
0E
#400000
0!
07
1.
#410000
1!
17
0.
0N
1K
0F
1C
1@
19
15
1;
0J
08
0*
1-
0'
1(
1)
0?
0>
#420000
0!
07
1.
#430000
1!
17
0.
1L
0K
0@
1:
09
1=
0;
1,
0-
0)
0B
0A
1>
1?
#440000
0!
07
1.
#450000
1!
17
0.
1M
0L
0C
1@
1<
0:
1;
06
1+
0,
0(
1)
1G
1D
1A
0?
1E
#460000
0!
07
1.
#470000
1!
17
0.
1N
0M
1F
0@
0<
05
0=
0;
16
1J
18
1*
0+
1'
0)
1H
0G
0D
1B
1?
0H
0E
#480000
0!
07
1.
#490000
1!
17
0.
0N
1K
0F
1C
1@
19
15
1;
0J
08
0*
1-
0'
1(
1)
0?
0>
#500000
0!
07
1.
#510000
1!
17
0.
1L
0K
0@
1:
09
1=
0;
1,
0-
0)
0B
0A
1>
1?
#520000
0!
07
1.
#530000
1!
17
0.
1M
0L
0C
1@
1<
0:
1;
06
1+
0,
0(
1)
1G
1D
1A
0?
1E
#540000
0!
07
1.
#550000
1!
17
0.
1N
0M
1F
0@
0<
05
0=
0;
16
1J
18
1*
0+
1'
0)
1H
0G
0D
1B
1?
0H
0E
#560000
0!
07
1.
#570000
1!
17
0.
0N
1K
0F
1C
1@
19
15
1;
0J
08
0*
1-
0'
1(
1)
0?
0>
#580000
0!
07
1.
#590000
1!
17
0.
1L
0K
0@
1:
09
1=
0;
1,
0-
0)
0B
0A
1>
1?
#600000
0!
07
1.
#610000
1!
17
0.
1M
0L
0C
1@
1<
0:
1;
06
1+
0,
0(
1)
1G
1D
1A
0?
1E
#620000
0!
07
1.
#630000
1!
17
0.
1N
0M
1F
0@
0<
05
0=
0;
16
1J
18
1*
0+
1'
0)
1H
0G
0D
1B
1?
0H
0E
#640000
0!
07
1.
#650000
1!
17
0.
0N
1K
0F
1C
1@
19
15
1;
0J
08
0*
1-
0'
1(
1)
0?
0>
#660000
0!
07
1.
#670000
1!
17
0.
1L
0K
0@
1:
09
1=
0;
1,
0-
0)
0B
0A
1>
1?
#680000
0!
07
1.
#690000
1!
17
0.
1M
0L
0C
1@
1<
0:
1;
06
1+
0,
0(
1)
1G
1D
1A
0?
1E
#700000
0!
07
1.
#710000
1!
17
0.
1N
0M
1F
0@
0<
05
0=
0;
16
1J
18
1*
0+
1'
0)
1H
0G
0D
1B
1?
0H
0E
#720000
0!
07
1.
#730000
1!
17
0.
0N
1K
0F
1C
1@
19
15
1;
0J
08
0*
1-
0'
1(
1)
0?
0>
#740000
0!
07
1.
#750000
1!
17
0.
1L
0K
0@
1:
09
1=
0;
1,
0-
0)
0B
0A
1>
1?
#760000
0!
07
1.
#770000
1!
17
0.
1M
0L
0C
1@
1<
0:
1;
06
1+
0,
0(
1)
1G
1D
1A
0?
1E
#780000
0!
07
1.
#790000
1!
17
0.
1N
0M
1F
0@
0<
05
0=
0;
16
1J
18
1*
0+
1'
0)
1H
0G
0D
1B
1?
0H
0E
#800000
0!
07
1.
#810000
1!
17
0.
0N
1K
0F
1C
1@
19
15
1;
0J
08
0*
1-
0'
1(
1)
0?
0>
#820000
0!
07
1.
#830000
1!
17
0.
1L
0K
0@
1:
09
1=
0;
1,
0-
0)
0B
0A
1>
1?
#840000
0!
07
1.
#850000
1!
17
0.
1M
0L
0C
1@
1<
0:
1;
06
1+
0,
0(
1)
1G
1D
1A
0?
1E
#860000
0!
07
1.
#870000
1!
17
0.
1N
0M
1F
0@
0<
05
0=
0;
16
1J
18
1*
0+
1'
0)
1H
0G
0D
1B
1?
0H
0E
#880000
0!
07
1.
#890000
1!
17
0.
0N
1K
0F
1C
1@
19
15
1;
0J
08
0*
1-
0'
1(
1)
0?
0>
#900000
0!
07
1.
#910000
1!
17
0.
1L
0K
0@
1:
09
1=
0;
1,
0-
0)
0B
0A
1>
1?
#920000
0!
07
1.
#930000
1!
17
0.
1M
0L
0C
1@
1<
0:
1;
06
1+
0,
0(
1)
1G
1D
1A
0?
1E
#940000
0!
07
1.
#950000
1!
17
0.
1N
0M
1F
0@
0<
05
0=
0;
16
1J
18
1*
0+
1'
0)
1H
0G
0D
1B
1?
0H
0E
#960000
0!
07
1.
#970000
1!
17
0.
0N
1K
0F
1C
1@
19
15
1;
0J
08
0*
1-
0'
1(
1)
0?
0>
#980000
0!
07
1.
#990000
1!
17
0.
1L
0K
0@
1:
09
1=
0;
1,
0-
0)
0B
0A
1>
1?
